<?xml version="1.0" encoding="UTF-8" standalone="no"?>
<svg
   xmlns:dc="http://purl.org/dc/elements/1.1/"
   xmlns:cc="http://creativecommons.org/ns#"
   xmlns:rdf="http://www.w3.org/1999/02/22-rdf-syntax-ns#"
   xmlns:svg="http://www.w3.org/2000/svg"
   xmlns="http://www.w3.org/2000/svg"
   xmlns:sodipodi="http://sodipodi.sourceforge.net/DTD/sodipodi-0.dtd"
   xmlns:inkscape="http://www.inkscape.org/namespaces/inkscape"
   version="1.1"
   viewBox="0 0 169.7 290.7"
   id="svg2"
   inkscape:version="0.91 r13725"
   sodipodi:docname="logo_Localghost.svg">
  <metadata
     id="metadata100">
    <rdf:RDF>
      <cc:Work
         rdf:about="">
        <dc:format>image/svg+xml</dc:format>
        <dc:type
           rdf:resource="http://purl.org/dc/dcmitype/StillImage" />
        <dc:title></dc:title>
      </cc:Work>
    </rdf:RDF>
  </metadata>
  <defs
     id="defs98" />
  <sodipodi:namedview
     pagecolor="#ffffff"
     bordercolor="#666666"
     borderopacity="1"
     objecttolerance="10"
     gridtolerance="10"
     guidetolerance="10"
     inkscape:pageopacity="0"
     inkscape:pageshadow="2"
     inkscape:window-width="1366"
     inkscape:window-height="704"
     id="namedview96"
     showgrid="false"
     inkscape:zoom="18.369694"
     inkscape:cx="32.914678"
     inkscape:cy="198.29789"
     inkscape:window-x="0"
     inkscape:window-y="27"
     inkscape:window-maximized="1"
     inkscape:current-layer="svg2" />
  <path
     fill="#FFFFFF"
     stroke="#11395D"
     stroke-width="1.5"
     stroke-miterlimit="10"
     d="M36.4,83.9"
     id="path6" />
  <path
     fill="#FFFFFF"
     stroke="#11395D"
     stroke-width="1.5"
     stroke-miterlimit="10"
     d="M58,125.3"
     id="path8" />
  <path
     fill="#FFFFFF"
     d="M140,90.7l-79.1,21.9L86.4,256l25.5-145.2l17.8,127L140,90.7C140.1,90.7,140,90.7,140,90.7z"
     id="path10" />
  <path
     fill="#194376"
     d="M86.4,257.8c-0.9,0-1.6-0.6-1.8-1.5L59.2,112.9c-0.2-0.9,0.4-1.8,1.3-2L139.5,89c0.4-0.1,0.9-0.1,1.3,0.1c0.7,0.3,1.1,1,1.1,1.7l-10.3,147.1c-0.1,0.9-0.8,1.6-1.7,1.7c-0.9,0-1.7-0.6-1.8-1.5l-16.3-115.8l-23.5,134C88,257.2,87.3,257.8,86.4,257.8L86.4,257.8z M63,113.9l23.4,131.8l23.7-135.2c0.2-0.9,0.8-1.5,1.8-1.5c0.9,0,1.6,0.7,1.7,1.5l15.5,110.1l9-127.6L63,113.9z"
     id="path12" />
  <path
     fill="#FFFFFF"
     d="M32.8,92.9l14.1,144.9L60.9,113L32.8,92.9C32.8,92.9,32.8,92.9,32.8,92.9z"
     id="path14" />
  <path
     fill="#194376"
     d="M46.8,239.6C46.8,239.6,46.8,239.6,46.8,239.6c-0.9,0-1.7-0.7-1.8-1.6L31,93c-0.1-0.8,0.3-1.5,1-1.8c0.7-0.3,1.5-0.2,2,0.4l27.9,19.9c0.5,0.4,0.8,1,0.7,1.7L48.6,238C48.5,238.9,47.7,239.6,46.8,239.6z M34.9,96.6L47,220.7L59,113.8L34.9,96.6z"
     id="path16" />
  <path
     fill="#FFFFFF"
     d="M135.6,105.3C135.6,105.3,135.6,105.3,135.6,105.3c5-8.5,7.9-18.4,7.9-29c0-31.5-25.6-57.1-57.1-57.1c-31.5,0-57.1,25.6-57.1,57.1c0,8.7,1.9,16.9,5.4,24.2c0,0,0,0,0,0"
     id="path18" />
  <path
     fill="#194376"
     d="M129.4,112.2l4.6-7.7c5-8.5,7.7-18.2,7.7-28.1c0-30.5-24.8-55.3-55.3-55.3S31.1,45.8,31.1,76.3c0,8.2,1.8,16.1,5.2,23.5l2.7,5.8l-5.3-3.6l1-1.5l-1.6,0.8c-3.7-7.9-5.6-16.3-5.6-25c0-32.5,26.4-58.9,58.9-58.9c32.5,0,58.9,26.4,58.9,58.9c0,10.5-2.8,20.9-8.2,29.9l-1.3-0.8l1,1.2l-0.1,0.1L129.4,112.2z"
     id="path20" />
  <path
     transform="scale(1.02) translate(-1.5 -3)"
     fill="#FFFFFF"
     d="M150.5,222.8H21.2c-0.8,0-1.4-0.6-1.4-1.4V92.2c0-0.8,0.6-1.4,1.4-1.4h129.3c0.8,0,1.4,0.6,1.4,1.4v129.3C151.9,222.2,151.3,222.8,150.5,222.8z"
     id="path4" />
  <path
     fill="#FFFFFF"
     stroke="#11395D"
     stroke-width="1.5"
     stroke-miterlimit="10"
     d="M109,123.5"
     id="path22" />
  <circle
     fill="#FFFFFF"
     cx="65.9"
     cy="65"
     r="20"
     id="circle24" />
  <path
     fill="#194376"
     d="M65.9,86.8C53.8,86.8,44,77,44,65s9.8-21.8,21.8-21.8S87.7,53,87.7,65S77.9,86.8,65.9,86.8z M65.9,46.8c-10.1,0-18.2,8.2-18.2,18.2s8.2,18.2,18.2,18.2S84.1,75,84.1,65S75.9,46.8,65.9,46.8z"
     id="path26" />
  <circle
     fill="#194376"
     cx="65.9"
     cy="65"
     r="15.6"
     id="circle28" />
  <circle
     fill="#FFFFFF"
     cx="106.9"
     cy="65"
     r="20"
     id="circle30" />
  <path
     fill="#194376"
     d="M106.9,86.8c-12,0-21.8-9.8-21.8-21.8s9.8-21.8,21.8-21.8c12,0,21.8,9.8,21.8,21.8S118.9,86.8,106.9,86.8zM106.9,46.8c-10.1,0-18.2,8.2-18.2,18.2s8.2,18.2,18.2,18.2S125.1,75,125.1,65S116.9,46.8,106.9,46.8z"
     id="path32" />
  <circle
     fill="#194376"
     cx="106.8"
     cy="65"
     r="15.6"
     id="circle34" />
  <path
     fill="#065DAA"
     d="M150.5,222.8H21.2c-0.8,0-1.4-0.6-1.4-1.4V92.2c0-0.8,0.6-1.4,1.4-1.4h129.3c0.8,0,1.4,0.6,1.4,1.4v129.3C151.9,222.2,151.3,222.8,150.5,222.8z"
     id="path36" />
  <path
     fill="#02508F"
     d="M54.5,150.2c-1.1,0-5,0.1-6.7,0.1c-0.8,0.1-1.9-0.3-1.9-1.1c0-1.2-1.8-24.1-1.8-25.5c0-1.4,3.5-1.7,3.5-0.4c0,1.1,0.7,17,0.9,23.5c2.1,0.1,5.4,0.5,6.4,0.5C56.2,147.5,55.7,150.3,54.5,150.2z"
     id="path38" />
  <path
     fill="#02508F"
     d="M76.5,137.6c0,8.1-4.3,12.8-9.7,12.8s-9.7-4.7-9.7-12.8c0-8,4.3-16.3,9.7-16.3S76.5,129.5,76.5,137.6zM72.5,138.1c0-9.2-3.2-13.9-6-13.9s-5.5,8.2-5.5,13.6c0,5.5,3.1,8.7,5.9,8.7C69.6,146.6,72.5,143.6,72.5,138.1z"
     id="path40" />
  <path
     fill="#02508F"
     d="M97.1,144c0,1.3-3.2,6.3-7.9,6.3c-5.2,0-9.5-6.4-9.5-14.3c0-7.9,4.2-14.2,9.5-14.2c3.5,0,6.5,3.3,6.5,5c0,0.9-1.5,2.3-2.2,2.3c-0.8,0-1.4-4-4.3-4c-3.3,0-5.5,3.9-5.5,10.4c0,6.9,1.9,11,5.7,11c3.9,0,3.9-4.1,4.9-4.1C95.3,142.4,97.1,142.8,97.1,144z"
     id="path42" />
  <path
     fill="#02508F"
     d="M103.6,141.7c-1,4.1-1.7,7.4-1.7,7.8c0,1.2-3.4,0.9-3.4-0.3c0-1.2,5.2-23.7,5.2-25.1c0-1.1,2.4-1.5,3.5-1c0.6,0.2,1.1,0.5,1.1,1.1c0,1.4,5.1,23.9,5.1,25.1s-2.8,1.5-2.8,0.3c0-0.4-0.7-3.7-1.7-7.8H103.6z M108.3,139.4l-2-8.7c-0.6,2.7-1.4,5.7-2,8.7H108.3z"
     id="path44" />
  <path
     fill="#02508F"
     d="M127,150.2c-1.1,0-5,0.1-6.7,0.1c-0.8,0.1-1.9-0.3-1.9-1.1c0-1.2-1.8-24.1-1.8-25.5c0-1.4,3.5-1.7,3.5-0.4c0,1.1,0.7,17,0.9,23.5c2.1,0.1,5.4,0.5,6.4,0.5C128.6,147.5,128.2,150.3,127,150.2z"
     id="path46" />
  <path
     fill="#02508F"
     d="M44.6,185.1c0,0-1.3,0.2-1.3-1.1c0-1.2,0.5-3,3-3h5c0,0,0.7-0.1,0.7,0.9v0.5c0.1,0.2,0.1,0.3,0.1,0.5c0,8.9-3.8,13.3-9.3,13.3c-6.2,0-11.2-7.5-11.2-16.8c0-9.3,5-16.8,11.2-16.8c4.1,0,7.6,3.8,7.6,5.9c0,1.1-1.7,2.7-2.6,2.7c-0.9,0-1.7-4.7-5-4.7c-3.9,0-6.5,4.6-6.5,12.2c0,8.1,2.2,13,6.7,13c4.1,0,5-3.9,5.2-7L44.6,185.1z"
     id="path48" />
  <path
     fill="#02508F"
     d="M68.6,176.5c-0.4-5.8-0.8-11-0.8-11.7c0-1.7,4.2-2,4.2-0.5c0,1.6,1.2,29.4,1.2,30.8c0,1.4-3.3,1.1-3.3-0.3c0-0.7-0.6-7.9-1.1-15h-8c0.3,7.3,0.6,14.7,0.6,15.4c0,1.4-3.3,1.1-3.3-0.3c0-1.4-2.1-28.3-2.1-30s4.2-2,4.2-0.5c0,0.7,0.2,6.1,0.5,12.1H68.6z"
     id="path50" />
  <path
     fill="#02508F"
     d="M99,181.1c0,9.5-5.1,15-11.4,15c-6.3,0-11.4-5.5-11.4-15c0-9.4,5.1-19.2,11.4-19.2C93.9,161.8,99,171.6,99,181.1z M94.3,181.8c0-10.8-3.8-16.3-7-16.3s-6.5,9.6-6.5,16c0,6.5,3.7,10.3,6.9,10.3C90.9,191.8,94.3,188.2,94.3,181.8z"
     id="path52" />
  <path
     fill="#02508F"
     d="M116.1,173.3c0,0,0.8-6.8-5.3-6.8c-1.9,0-4.7,0.9-4.7,5.3c0,8.4,16.3,7.3,16.3,17.7c0,9-20.3,9.7-20.3,1.2c0-6.5,5.1-5.9,5.1-5.5l0.1,4.9c0,0,1.1,3.1,4.6,3.1c3.7,0,5.6-1.3,5.6-3.7c0-8.4-15.8-7.9-15.8-17.9c0-9.6,19.1-10.9,19.1-2.6C120.8,175.1,116.1,173.3,116.1,173.3z"
     id="path54" />
  <path
     fill="#02508F"
     d="M139.4,166.7c-0.6,0-2.7,0.1-5.1,0.2c0.3,7.2,1.1,27.2,1.1,28.3c0,1.4-3.3,1.1-3.3-0.3c0-1.2-1.5-21-1.9-27.8c-2.5,0.1-4.7,0.2-5.4,0.2c-1.7-0.1-1.8-3.9-0.2-3.8c1.5,0.1,14,0,15.3,0.1C141.3,163.5,140.9,166.8,139.4,166.7z"
     id="path56" />
  <path
     fill="#FFFFFF"
     d="M54.2,145.4c-1.1,0-5,0.1-6.7,0.1c-0.8,0.1-1.9-0.3-1.9-1.1c0-1.2-1.8-24.1-1.8-25.5c0-1.4,3.5-1.7,3.5-0.4c0,1.1,0.7,17,0.9,23.5c2.1,0.1,5.4,0.5,6.4,0.5C55.8,142.7,55.4,145.5,54.2,145.4z"
     id="path58" />
  <path
     fill="#FFFFFF"
     d="M76.1,132.7c0,8.1-4.3,12.8-9.7,12.8s-9.7-4.7-9.7-12.8c0-8,4.3-16.3,9.7-16.3S76.1,124.7,76.1,132.7zM72.2,133.3c0-9.2-3.2-13.9-6-13.9s-5.5,8.2-5.5,13.6c0,5.5,3.1,8.7,5.9,8.7C69.3,141.8,72.2,138.8,72.2,133.3z"
     id="path60" />
  <path
     fill="#FFFFFF"
     d="M96.7,139.2c0,1.3-3.2,6.3-7.9,6.3c-5.2,0-9.5-6.4-9.5-14.3c0-7.9,4.2-14.2,9.5-14.2c3.5,0,6.5,3.3,6.5,5c0,0.9-1.5,2.3-2.2,2.3c-0.8,0-1.4-4-4.3-4c-3.3,0-5.5,3.9-5.5,10.4c0,6.9,1.9,11,5.7,11c3.9,0,3.9-4.1,4.9-4.1C94.9,137.6,96.7,137.9,96.7,139.2z"
     id="path62" />
  <path
     fill="#FFFFFF"
     d="M103.2,136.9c-1,4.1-1.7,7.4-1.7,7.8c0,1.2-3.4,0.9-3.4-0.3c0-1.2,5.2-23.7,5.2-25.1c0-1.1,2.4-1.5,3.5-1c0.6,0.2,1.1,0.5,1.1,1.1c0,1.4,5.1,23.9,5.1,25.1c0,1.2-2.8,1.5-2.8,0.3c0-0.4-0.7-3.7-1.7-7.8H103.2z M107.9,134.5l-2-8.7c-0.6,2.7-1.4,5.7-2,8.7H107.9z"
     id="path64" />
  <path
     fill="#FFFFFF"
     d="M126.6,145.4c-1.1,0-5,0.1-6.7,0.1c-0.8,0.1-1.9-0.3-1.9-1.1c0-1.2-1.8-24.1-1.8-25.5c0-1.4,3.5-1.7,3.5-0.4c0,1.1,0.7,17,0.9,23.5c2.1,0.1,5.4,0.5,6.4,0.5C128.3,142.7,127.8,145.5,126.6,145.4z"
     id="path66" />
  <path
     fill="#FFFFFF"
     d="M44.2,180.2c0,0-1.3,0.2-1.3-1.1c0-1.2,0.5-3,3-3h5c0,0,0.7-0.1,0.7,0.9v0.5c0.1,0.2,0.1,0.3,0.1,0.5c0,8.9-3.8,13.3-9.3,13.3c-6.2,0-11.2-7.5-11.2-16.8c0-9.3,5-16.8,11.2-16.8c4.1,0,7.6,3.8,7.6,5.9c0,1.1-1.7,2.7-2.6,2.7c-0.9,0-1.7-4.7-5-4.7c-3.9,0-6.5,4.6-6.5,12.2c0,8.1,2.2,13,6.7,13c4.1,0,5-3.9,5.2-7L44.2,180.2z"
     id="path68" />
  <path
     fill="#FFFFFF"
     d="M68.2,171.7c-0.4-5.8-0.8-11-0.8-11.7c0-1.7,4.2-2,4.2-0.5c0,1.6,1.2,29.4,1.2,30.8c0,1.4-3.3,1.1-3.3-0.3c0-0.7-0.6-7.9-1.1-15h-8c0.3,7.3,0.6,14.7,0.6,15.4c0,1.4-3.3,1.1-3.3-0.3c0-1.4-2.1-28.3-2.1-30c0-1.7,4.2-2,4.2-0.5c0,0.7,0.2,6.1,0.5,12.1H68.2z"
     id="path70" />
  <path
     fill="#FFFFFF"
     d="M98.6,176.2c0,9.5-5.1,15-11.4,15c-6.3,0-11.4-5.5-11.4-15c0-9.4,5.1-19.2,11.4-19.2C93.5,157,98.6,166.8,98.6,176.2z M94,176.9c0-10.8-3.8-16.3-7-16.3s-6.5,9.6-6.5,16c0,6.5,3.7,10.3,6.9,10.3C90.5,186.9,94,183.3,94,176.9z"
     id="path72" />
  <path
     fill="#FFFFFF"
     d="M115.7,168.5c0,0,0.8-6.8-5.3-6.8c-1.9,0-4.7,0.9-4.7,5.3c0,8.4,16.3,7.3,16.3,17.7c0,9-20.3,9.7-20.3,1.2c0-6.5,5.1-5.9,5.1-5.5l0.1,4.9c0,0,1.1,3.1,4.6,3.1c3.7,0,5.6-1.3,5.6-3.7c0-8.4-15.8-7.9-15.8-17.9c0-9.6,19.1-10.9,19.1-2.6C120.4,170.2,115.7,168.5,115.7,168.5z"
     id="path74" />
  <path
     fill="#FFFFFF"
     d="M139.1,161.9c-0.6,0-2.7,0.1-5.1,0.2c0.3,7.2,1.1,27.2,1.1,28.3c0,1.4-3.3,1.1-3.3-0.3c0-1.2-1.5-21-1.9-27.8c-2.5,0.1-4.7,0.2-5.4,0.2c-1.7-0.1-1.8-3.9-0.2-3.8c1.5,0.1,14,0,15.3,0.1C140.9,158.7,140.5,161.9,139.1,161.9z"
     id="path76" />
  <circle
     fill="#FFFFFF"
     cx="19.8"
     cy="134.8"
     r="9.9"
     id="circle78" />
  <path
     fill="#194376"
     d="M19.8,146.5c-6.5,0-11.7-5.3-11.7-11.7c0-6.5,5.3-11.7,11.7-11.7c6.5,0,11.7,5.3,11.7,11.7C31.6,141.2,26.3,146.5,19.8,146.5z M19.8,126.6c-4.5,0-8.2,3.7-8.2,8.2c0,4.5,3.7,8.2,8.2,8.2s8.2-3.7,8.2-8.2C28,130.3,24.3,126.6,19.8,126.6z"
     id="path80" />
  <circle
     fill="#FFFFFF"
     cx="150.4"
     cy="130.9"
     r="9.9"
     id="circle82" />
  <path
     fill="#194376"
     d="M150.4,142.7c-6.5,0-11.7-5.3-11.7-11.7c0-6.5,5.3-11.7,11.7-11.7c6.5,0,11.7,5.3,11.7,11.7C162.1,137.4,156.9,142.7,150.4,142.7z M150.4,122.8c-4.5,0-8.2,3.7-8.2,8.2c0,4.5,3.7,8.2,8.2,8.2s8.2-3.7,8.2-8.2C158.6,126.4,154.9,122.8,150.4,122.8z"
     id="path84" />
  <ellipse
     fill="#231F20"
     cx="86"
     cy="276.8"
     rx="66.2"
     ry="5.1"
     opacity="0.08"
     id="ellipse86" />
  <circle
     fill="#FFFFFF"
     cx="64.3"
     cy="57.9"
     r="4"
     id="circle88" />
  <circle
     fill="#FFFFFF"
     cx="71"
     cy="57.9"
     r="1.8"
     id="circle90" />
  <circle
     fill="#FFFFFF"
     cx="102.4"
     cy="58"
     r="4"
     id="circle92" />
  <circle
     fill="#FFFFFF"
     cx="109.1"
     cy="58"
     r="1.8"
     id="circle94" />
</svg>
